{
  "modes": {
    "league": 1000,
    "exhibition": 1500
  },
  "rosters": {
    "Amazon": {
      "reroll": 50,
      "apothecary": true,
      "tier": 1,
      "positions": {
        "Tribal Linewoman": {
          "cost": 50,
          "minimum": 0,
          "maximum": 16,
          "color": "grey",
          "movementAllowance": 6,
          "strength": 3,
          "agility": "3+",
          "passingAbility": "4+",
          "armorValue": "8+",
          "skills": [
            "Dodge"
          ],
          "traits": []
        },
        "Eagle Warrior Thrower": {
          "cost": 75,
          "minimum": 0,
          "maximum": 2,
          "color": "white",
          "movementAllowance": 6,
          "strength": 3,
          "agility": "3+",
          "passingAbility": "3+",
          "armorValue": "8+",
          "skills": [
            "Dodge",
            "Pass"
          ],
          "traits": []
        },
        "Piranha Warrior Catcher": {
          "cost": 75,
          "minimum": 0,
          "maximum": 2,
          "color": "yellow",
          "movementAllowance": 6,
          "strength": 3,
          "agility": "3+",
          "passingAbility": "5+",
          "armorValue": "8+",
          "skills": [
            "Catch",
            "Dodge"
          ],
          "traits": []
        },
        "Koka Kalim Blitzer": {
          "cost": 90,
          "minimum": 0,
          "maximum": 4,
          "color": "red",
          "movementAllowance": 6,
          "strength": 3,
          "agility": "3+",
          "passingAbility": "5+",
          "armorValue": "8+",
          "skills": [
            "Block",
            "Dodge"
          ],
          "traits": []
        }
      }
    },
    "Black Orc": {
      "reroll": 60,
      "apothecary": true,
      "tier": 2,
      "positions": {
        "Goblin Bruiser Lineman": {
          "cost": 45,
          "minimum": 0,
          "maximum": 12,
          "color": "grey",
          "movementAllowance": 6,
          "strength": 2,
          "agility": "3+",
          "passingAbility": "4+",
          "armorValue": "8+",
          "skills": [
            "Dodge",
            "Thick Skull"
          ],
          "traits": [
            "Right Stuff",
            "Stunty"
          ]
        },
        "Black Orc": {
          "cost": 90,
          "minimum": 0,
          "maximum": 6,
          "color": "red",
          "movementAllowance": 4,
          "strength": 4,
          "agility": "4+",
          "passingAbility": "5+",
          "armorValue": "10+",
          "skills": [
            "Brawler",
            "Grab"
          ],
          "traits": []
        },
        "Trained Troll": {
          "cost": 115,
          "minimum": 0,
          "maximum": 1,
          "color": "green",
          "movementAllowance": 4,
          "strength": 5,
          "agility": "5+",
          "passingAbility": "5+",
          "armorValue": "10+",
          "skills": [
            "Mighty Blow (+1)"
          ],
          "traits": [
            "Always Hungry",
            "Loner (3+)",
            "Projectile Vomit",
            "Really Stupid",
            "Regeneration",
            "Throw Team-mate"
          ]
        }
      }
    },
    "Chaos Chosen": {
      "reroll": 60,
      "apothecary": true,
      "tier": 2,
      "positionRestriction": {
        "max": 1,
        "of": [
          "Chaos Troll",
          "Chaos Ogre",
          "Minotaur"
        ]
      },
      "positions": {
        "Beastman Runner Lineman": {
          "cost": 60,
          "minimum": 0,
          "maximum": 16,
          "color": "grey",
          "movementAllowance": 6,
          "strength": 3,
          "agility": "3+",
          "passingAbility": "4+",
          "armorValue": "9+",
          "skills": [
            "Horns"
          ],
          "traits": []
        },
        "Chosen Blocker": {
          "cost": 100,
          "minimum": 0,
          "maximum": 4,
          "color": "green",
          "movementAllowance": 5,
          "strength": 4,
          "agility": "3+",
          "passingAbility": "5+",
          "armorValue": "10+",
          "skills": [],
          "traits": []
        },
        "Chaos Troll": {
          "cost": 115,
          "minimum": 0,
          "maximum": 1,
          "color": "green",
          "movementAllowance": 4,
          "strength": 5,
          "agility": "5+",
          "passingAbility": "5+",
          "armorValue": "10+",
          "skills": [
            "Mighty Blow (+1)"
          ],
          "traits": [
            "Always Hungry",
            "Loner (4+)",
            "Projectile Vomit",
            "Really Stupid",
            "Regeneration",
            "Throw Team-mate"
          ]
        },
        "Chaos Ogre": {
          "cost": 140,
          "minimum": 0,
          "maximum": 1,
          "color": "green",
          "movementAllowance": 5,
          "strength": 5,
          "agility": "4+",
          "passingAbility": "5+",
          "armorValue": "10+",
          "skills": [
            "Mighty Blow (+1)",
            "Thick Skull"
          ],
          "traits": [
            "Bone Head",
            "Loner (4+)",
            "Throw Team-mate"
          ]
        },
        "Minotaur": {
          "cost": 150,
          "minimum": 0,
          "maximum": 1,
          "color": "green",
          "movementAllowance": 5,
          "strength": 5,
          "agility": "4+",
          "passingAbility": "-",
          "armorValue": "9+",
          "skills": [
            "Frenzy",
            "Horns",
            "Mighty Blow (+1)",
            "Thick Skull"
          ],
          "traits": [
            "Loner (4+)",
            "Unchannelled Fury"
          ]
        }
      }
    },
    "Chaos Dwarf": {
      "reroll": 70,
      "apothecary": true,
      "tier": 1,
      "positions": {
        "Hobgoblin Lineman": {
          "cost": 40,
          "minimum": 0,
          "maximum": 16,
          "color": "grey",
          "movementAllowance": 6,
          "strength": 3,
          "agility": "3+",
          "passingAbility": "4+",
          "armorValue": "8+",
          "skills": [],
          "traits": []
        },
        "Chaos Dwarf Blocker": {
          "cost": 70,
          "minimum": 0,
          "maximum": 6,
          "color": "green",
          "movementAllowance": 4,
          "strength": 3,
          "agility": "4+",
          "passingAbility": "6+",
          "armorValue": "10+",
          "skills": [
            "Block",
            "Tackle",
            "Thick Skull"
          ],
          "traits": []
        },
        "Bull Centaur Blitzer": {
          "cost": 130,
          "minimum": 0,
          "maximum": 2,
          "color": "red",
          "movementAllowance": 6,
          "strength": 4,
          "agility": "4+",
          "passingAbility": "6+",
          "armorValue": "10+",
          "skills": [
            "Sprint",
            "Sure Feet",
            "Thick Skull"
          ],
          "traits": []
        },
        "Enslaved Minotaur": {
          "cost": 150,
          "minimum": 0,
          "maximum": 1,
          "color": "green",
          "movementAllowance": 5,
          "strength": 5,
          "agility": "4+",
          "passingAbility": "-",
          "armorValue": "9+",
          "skills": [
            "Frenzy",
            "Horns",
            "Mighty Blow (+1)",
            "Thick Skull"
          ],
          "traits": [
            "Animal Savagery",
            "Loner (4+)"
          ]
        }
      }
    },
    "Chaos Renegade": {
      "reroll": 70,
      "apothecary": true,
      "tier": 2,
      "positionRestriction": {
        "max": 3,
        "of": [
          "Renegade Troll",
          "Renegade Ogre",
          "Renegade Minotaur",
          "Renegade Rat Ogre"
        ]
      },
      "positions": {
        "Renegade Human Lineman": {
          "cost": 50,
          "minimum": 0,
          "maximum": 12,
          "color": "grey",
          "movementAllowance": 6,
          "strength": 3,
          "agility": "3+",
          "passingAbility": "4+",
          "armorValue": "9+",
          "skills": [],
          "traits": []
        },
        "Renegade Human Thrower": {
          "cost": 75,
          "minimum": 0,
          "maximum": 1,
          "color": "white",
          "movementAllowance": 6,
          "strength": 3,
          "agility": "3+",
          "passingAbility": "3+",
          "armorValue": "9+",
          "skills": [
            "Pass",
            "Safe Pair of Hands"
          ],
          "traits": [
            "Animosity (all team-mates)"
          ]
        },
        "Renegade Goblin": {
          "cost": 40,
          "minimum": 0,
          "maximum": 1,
          "color": "yellow",
          "movementAllowance": 6,
          "strength": 2,
          "agility": "3+",
          "passingAbility": "4+",
          "armorValue": "8+",
          "skills": [
            "Dodge"
          ],
          "traits": [
            "Animosity (all team-mates)",
            "Right Stuff",
            "Stunty"
          ]
        },
        "Renegade Orc": {
          "cost": 50,
          "minimum": 0,
          "maximum": 1,
          "color": "grey",
          "movementAllowance": 5,
          "strength": 3,
          "agility": "3+",
          "passingAbility": "5+",
          "armorValue": "10+",
          "skills": [],
          "traits": [
            "Animosity (all team-mates)"
          ]
        },
        "Renegade Skaven": {
          "cost": 50,
          "minimum": 0,
          "maximum": 1,
          "color": "grey",
          "movementAllowance": 7,
          "strength": 3,
          "agility": "3+",
          "passingAbility": "4+",
          "armorValue": "8+",
          "skills": [],
          "traits": [
            "Animosity (all team-mates)"
          ]
        },
        "Renegade Dark Elf": {
          "cost": 75,
          "minimum": 0,
          "maximum": 1,
          "color": "grey",
          "movementAllowance": 6,
          "strength": 3,
          "agility": "2+",
          "passingAbility": "3+",
          "armorValue": "9+",
          "skills": [],
          "traits": [
            "Animosity (all team-mates)"
          ]
        },
        "Renegade Troll": {
          "cost": 115,
          "minimum": 0,
          "maximum": 1,
          "color": "green",
          "movementAllowance": 4,
          "strength": 5,
          "agility": "5+",
          "passingAbility": "5+",
          "armorValue": "10+",
          "skills": [
            "Mighty Blow (+1)"
          ],
          "traits": [
            "Always Hungry",
            "Loner (4+)",
            "Projectile Vomit",
            "Really Stupid",
            "Regeneration",
            "Throw Team-mate"
          ]
        },
        "Renegade Ogre": {
          "cost": 140,
          "minimum": 0,
          "maximum": 1,
          "color": "green",
          "movementAllowance": 5,
          "strength": 5,
          "agility": "4+",
          "passingAbility": "5+",
          "armorValue": "10+",
          "skills": [
            "Mighty Blow (+1)",
            "Thick Skull"
          ],
          "traits": [
            "Bone Head",
            "Loner (4+)",
            "Throw Team-mate"
          ]
        },
        "Renegade Minotaur": {
          "cost": 150,
          "minimum": 0,
          "maximum": 1,
          "color": "green",
          "movementAllowance": 5,
          "strength": 5,
          "agility": "4+",
          "passingAbility": "-",
          "armorValue": "9+",
          "skills": [
            "Frenzy",
            "Horns",
            "Mighty Blow (+1)",
            "Thick Skull"
          ],
          "traits": [
            "Loner (4+)",
            "Unchannelled Fury"
          ]
        },
        "Renegade Rat Ogre": {
          "cost": 150,
          "minimum": 0,
          "maximum": 1,
          "color": "green",
          "movementAllowance": 6,
          "strength": 5,
          "agility": "4+",
          "passingAbility": "-",
          "armorValue": "9+",
          "skills": [
            "Frenzy",
            "Mighty Blow (+1)",
            "Prehensile Tail"
          ],
          "traits": [
            "Animal Savagery",
            "Loner (4+)"
          ]
        }
      }
    },
    "Dark Elf": {
      "reroll": 50,
      "apothecary": true,
      "tier": 1,
      "positions": {
        "Dark Elf Lineman": {
          "cost": 70,
          "minimum": 0,
          "maximum": 12,
          "color": "grey",
          "movementAllowance": 6,
          "strength": 3,
          "agility": "2+",
          "passingAbility": "4+",
          "armorValue": "9+",
          "skills": [],
          "traits": []
        },
        "Runner": {
          "cost": 80,
          "minimum": 0,
          "maximum": 2,
          "color": "white",
          "movementAllowance": 7,
          "strength": 3,
          "agility": "2+",
          "passingAbility": "3+",
          "armorValue": "8+",
          "skills": [
            "Dump-off"
          ],
          "traits": []
        },
        "Blitzer": {
          "cost": 100,
          "minimum": 0,
          "maximum": 4,
          "color": "red",
          "movementAllowance": 7,
          "strength": 3,
          "agility": "2+",
          "passingAbility": "4+",
          "armorValue": "9+",
          "skills": [
            "Block"
          ],
          "traits": []
        },
        "Assassin": {
          "cost": 85,
          "minimum": 0,
          "maximum": 2,
          "color": "violet",
          "movementAllowance": 7,
          "strength": 3,
          "agility": "2+",
          "passingAbility": "5+",
          "armorValue": "8+",
          "skills": [
            "Shadowing",
            "Stab"
          ],
          "traits": []
        },
        "Witch Elf": {
          "cost": 110,
          "minimum": 0,
          "maximum": 2,
          "color": "yellow",
          "movementAllowance": 7,
          "strength": 3,
          "agility": "2+",
          "passingAbility": "5+",
          "armorValue": "8+",
          "skills": [
            "Dodge",
            "Frenzy",
            "Jump Up"
          ],
          "traits": []
        }
      }
    },
    "Dwarf": {
      "reroll": 50,
      "apothecary": true,
      "tier": 1,
      "positions": {
        "Dwarf Blocker Lineman": {
          "cost": 70,
          "minimum": 0,
          "maximum": 12,
          "color": "grey",
          "movementAllowance": 4,
          "strength": 3,
          "agility": "4+",
          "passingAbility": "5+",
          "armorValue": "10+",
          "skills": [
            "Block",
            "Tackle",
            "Thick Skull"
          ],
          "traits": []
        },
        "Runner": {
          "cost": 85,
          "minimum": 0,
          "maximum": 2,
          "color": "white",
          "movementAllowance": 6,
          "strength": 3,
          "agility": "3+",
          "passingAbility": "4+",
          "armorValue": "9+",
          "skills": [
            "Sure Hands",
            "Thick Skull"
          ],
          "traits": []
        },
        "Blitzer": {
          "cost": 80,
          "minimum": 0,
          "maximum": 2,
          "color": "red",
          "movementAllowance": 5,
          "strength": 3,
          "agility": "3+",
          "passingAbility": "5+",
          "armorValue": "10+",
          "skills": [
            "Block",
            "Thick Skull"
          ],
          "traits": []
        },
        "Troll Slayer": {
          "cost": 95,
          "minimum": 0,
          "maximum": 2,
          "color": "violet",
          "movementAllowance": 5,
          "strength": 3,
          "agility": "4+",
          "passingAbility": "-",
          "armorValue": "9+",
          "skills": [
            "Block",
            "Dauntless",
            "Frenzy",
            "Thick Skull"
          ],
          "traits": []
        },
        "Deathroller": {
          "cost": 170,
          "minimum": 0,
          "maximum": 1,
          "color": "green",
          "movementAllowance": 4,
          "strength": 7,
          "agility": "5+",
          "passingAbility": "-",
          "armorValue": "11+",
          "skills": [
            "Break Tackle",
            "Dirty Player (+2)",
            "Juggernaut",
            "Mighty Blow (+1)",
            "Stand Firm"
          ],
          "traits": [
            "No Hands",
            "Loner (5+)",
            "Secret Weapon"
          ]
        }
      }
    },
    "Elf Union": {
      "reroll": 50,
      "apothecary": true,
      "tier": 2,
      "positions": {
        "Lineman": {
          "cost": 60,
          "minimum": 0,
          "maximum": 12,
          "color": "grey",
          "movementAllowance": 6,
          "strength": 3,
          "agility": "2+",
          "passingAbility": "4+",
          "armorValue": "8+",
          "skills": [],
          "traits": []
        },
        "Thrower": {
          "cost": 75,
          "minimum": 0,
          "maximum": 2,
          "color": "white",
          "movementAllowance": 6,
          "strength": 3,
          "agility": "2+",
          "passingAbility": "2+",
          "armorValue": "8+",
          "skills": [
            "Pass"
          ],
          "traits": []
        },
        "Catcher": {
          "cost": 100,
          "minimum": 0,
          "maximum": 4,
          "color": "yellow",
          "movementAllowance": 8,
          "strength": 3,
          "agility": "2+",
          "passingAbility": "4+",
          "armorValue": "8+",
          "skills": [
            "Catch",
            "Nerves of Steel"
          ],
          "traits": []
        },
        "Blitzer": {
          "cost": 115,
          "minimum": 0,
          "maximum": 2,
          "color": "red",
          "movementAllowance": 7,
          "strength": 3,
          "agility": "2+",
          "passingAbility": "3+",
          "armorValue": "9+",
          "skills": [
            "Block",
            "Side Step"
          ],
          "traits": []
        }
      }
    },
    "Goblin": {
      "reroll": 60,
      "apothecary": true,
      "tier": 3,
      "positions": {
        "Goblin Lineman": {
          "cost": 40,
          "minimum": 0,
          "maximum": 16,
          "color": "grey",
          "movementAllowance": 6,
          "strength": 2,
          "agility": "3+",
          "passingAbility": "4+",
          "armorValue": "8+",
          "skills": [
            "Dodge"
          ],
          "traits": [
            "Right Stuff",
            "Stunty"
          ]
        },
        "Booma": {
          "cost": 45,
          "minimum": 0,
          "maximum": 1,
          "color": "violet",
          "movementAllowance": 6,
          "strength": 2,
          "agility": "3+",
          "passingAbility": "4+",
          "armorValue": "8+",
          "skills": [
            "Dodge"
          ],
          "traits": [
            "Bombardier",
            "Secret Weapon",
            "Stunty"
          ]
        },
        "Looney": {
          "cost": 40,
          "minimum": 0,
          "maximum": 1,
          "color": "violet",
          "movementAllowance": 6,
          "strength": 2,
          "agility": "3+",
          "passingAbility": "-",
          "armorValue": "8+",
          "skills": [],
          "traits": [
            "Chainsaw",
            "Secret Weapon",
            "Stunty"
          ]
        },
        "Fanatic": {
          "cost": 70,
          "minimum": 0,
          "maximum": 1,
          "color": "violet",
          "movementAllowance": 3,
          "strength": 7,
          "agility": "3+",
          "passingAbility": "-",
          "armorValue": "8+",
          "skills": [],
          "traits": [
            "Ball & Chain",
            "No Hands",
            "Secret Weapon",
            "Stunty"
          ]
        },
        "Pogoer": {
          "cost": 75,
          "minimum": 0,
          "maximum": 1,
          "color": "yellow",
          "movementAllowance": 7,
          "strength": 2,
          "agility": "3+",
          "passingAbility": "5+",
          "armorValue": "8+",
          "skills": [
            "Dodge"
          ],
          "traits": [
            "Pogo Stick",
            "Stunty"
          ]
        },
        "'Ooligan": {
          "cost": 65,
          "minimum": 0,
          "maximum": 1,
          "color": "violet",
          "movementAllowance": 6,
          "strength": 2,
          "agility": "3+",
          "passingAbility": "6+",
          "armorValue": "8+",
          "skills": [
            "Dirty Player (+1)",
            "Disturbing Presence",
            "Dodge"
          ],
          "traits": [
            "Right Stuff",
            "Stunty"
          ]
        },
        "Doom Diver": {
          "cost": 60,
          "minimum": 0,
          "maximum": 1,
          "color": "violet",
          "movementAllowance": 6,
          "strength": 2,
          "agility": "3+",
          "passingAbility": "6+",
          "armorValue": "8+",
          "skills": [],
          "traits": [
            "Right Stuff",
            "Stunty",
            "Swoop"
          ]
        },
        "Trained Troll": {
          "cost": 115,
          "minimum": 0,
          "maximum": 2,
          "color": "green",
          "movementAllowance": 4,
          "strength": 5,
          "agility": "5+",
          "passingAbility": "5+",
          "armorValue": "10+",
          "skills": [
            "Mighty Blow (+1)"
          ],
          "traits": [
            "Always Hungry",
            "Loner (3+)",
            "Projectile Vomit",
            "Really Stupid",
            "Regeneration",
            "Throw Team-mate"
          ]
        }
      }
    },
    "Halfling": {
      "reroll": 60,
      "apothecary": true,
      "tier": 3,
      "positions": {
        "Halfling Hopeful Lineman": {
          "cost": 30,
          "minimum": 0,
          "maximum": 16,
          "color": "grey",
          "movementAllowance": 5,
          "strength": 2,
          "agility": "3+",
          "passingAbility": "4+",
          "armorValue": "7+",
          "skills": [
            "Dodge"
          ],
          "traits": [
            "Right Stuff",
            "Stunty"
          ]
        },
        "Halfling Hefty": {
          "cost": 50,
          "minimum": 0,
          "maximum": 2,
          "color": "red",
          "movementAllowance": 5,
          "strength": 2,
          "agility": "3+",
          "passingAbility": "3+",
          "armorValue": "7+",
          "skills": [
            "Dodge",
            "Fend"
          ],
          "traits": [
            "Stunty"
          ]
        },
        "Halfling Catcher": {
          "cost": 55,
          "minimum": 0,
          "maximum": 2,
          "color": "yellow",
          "movementAllowance": 5,
          "strength": 2,
          "agility": "3+",
          "passingAbility": "5+",
          "armorValue": "7+",
          "skills": [
            "Dodge",
            "Catch",
            "Sprint"
          ],
          "traits": [
            "Right Stuff",
            "Stunty"
          ]
        },
        "Treeman": {
          "cost": 120,
          "minimum": 0,
          "maximum": 2,
          "color": "green",
          "movementAllowance": 2,
          "strength": 6,
          "agility": "5+",
          "passingAbility": "5+",
          "armorValue": "11+",
          "skills": [
            "Mighty Blow (+1)",
            "Stand Firm",
            "Strong Arm",
            "Thick Skull"
          ],
          "traits": [
            "Take Root",
            "Timmmm-ber!",
            "Throw Team-mate"
          ]
        }
      }
    },
    "High Elf": {
      "reroll": 50,
      "apothecary": true,
      "tier": 2,
      "positions": {
        "Lineman": {
          "cost": 70,
          "minimum": 0,
          "maximum": 16,
          "color": "grey",
          "movementAllowance": 6,
          "strength": 3,
          "agility": "2+",
          "passingAbility": "4+",
          "armorValue": "9+",
          "skills": [],
          "traits": []
        },
        "Thrower": {
          "cost": 100,
          "minimum": 0,
          "maximum": 2,
          "color": "white",
          "movementAllowance": 6,
          "strength": 3,
          "agility": "2+",
          "passingAbility": "2+",
          "armorValue": "9+",
          "skills": [
            "Cloud Burster",
            "Pass",
            "Sure Pass"
          ],
          "traits": []
        },
        "Catcher": {
          "cost": 90,
          "minimum": 0,
          "maximum": 4,
          "color": "yellow",
          "movementAllowance": 8,
          "strength": 3,
          "agility": "2+",
          "passingAbility": "5+",
          "armorValue": "8+",
          "skills": [
            "Catch"
          ],
          "traits": []
        },
        "Blitzer": {
          "cost": 100,
          "minimum": 0,
          "maximum": 2,
          "color": "red",
          "movementAllowance": 7,
          "strength": 3,
          "agility": "2+",
          "passingAbility": "4+",
          "armorValue": "9+",
          "skills": [
            "Block"
          ],
          "traits": []
        }
      }
    },
    "Human": {
      "reroll": 50,
      "apothecary": true,
      "tier": 1,
      "positions": {
        "Lineman": {
          "cost": 50,
          "minimum": 0,
          "maximum": 16,
          "color": "grey",
          "movementAllowance": 6,
          "strength": 3,
          "agility": "3+",
          "passingAbility": "4+",
          "armorValue": "9+",
          "skills": [],
          "traits": []
        },
        "Thrower": {
          "cost": 80,
          "minimum": 0,
          "maximum": 2,
          "color": "white",
          "movementAllowance": 6,
          "strength": 3,
          "agility": "3+",
          "passingAbility": "2+",
          "armorValue": "9+",
          "skills": [
            "Pass",
            "Sure Hands"
          ],
          "traits": []
        },
        "Catcher": {
          "cost": 65,
          "minimum": 0,
          "maximum": 4,
          "color": "yellow",
          "movementAllowance": 8,
          "strength": 2,
          "agility": "3+",
          "passingAbility": "5+",
          "armorValue": "8+",
          "skills": [
            "Catch",
            "Dodge"
          ],
          "traits": []
        },
        "Blitzer": {
          "cost": 85,
          "minimum": 0,
          "maximum": 4,
          "color": "red",
          "movementAllowance": 7,
          "strength": 3,
          "agility": "3+",
          "passingAbility": "4+",
          "armorValue": "9+",
          "skills": [
            "Block"
          ],
          "traits": []
        },
        "Halfling Hopeful": {
          "cost": 30,
          "minimum": 0,
          "maximum": 3,
          "color": "violet",
          "movementAllowance": 5,
          "strength": 2,
          "agility": "3+",
          "passingAbility": "4+",
          "armorValue": "7+",
          "skills": [
            "Dodge"
          ],
          "traits": [
            "Right Stuff",
            "Stunty"
          ]
        },
        "Ogre": {
          "cost": 140,
          "minimum": 0,
          "maximum": 1,
          "color": "green",
          "movementAllowance": 5,
          "strength": 5,
          "agility": "4+",
          "passingAbility": "5+",
          "armorValue": "10+",
          "skills": [
            "Mighty Blow (+1)",
            "Thick Skull"
          ],
          "traits": [
            "Bone Head",
            "Loner (4+)",
            "Throw Team-mate"
          ]
        }
      }
    },
    "Imperial Nobility": {
      "reroll": 70,
      "apothecary": true,
      "tier": 2,
      "positions": {
        "Imperial Retainer Lineman": {
          "cost": 45,
          "minimum": 0,
          "maximum": 12,
          "color": "grey",
          "movementAllowance": 6,
          "strength": 3,
          "agility": "4+",
          "passingAbility": "4+",
          "armorValue": "8+",
          "skills": [
            "Fend"
          ],
          "traits": []
        },
        "Imperial Thrower": {
          "cost": 75,
          "minimum": 0,
          "maximum": 2,
          "color": "white",
          "movementAllowance": 6,
          "strength": 3,
          "agility": "3+",
          "passingAbility": "3+",
          "armorValue": "9+",
          "skills": [
            "Pass",
            "Running Pass"
          ],
          "traits": []
        },
        "Noble Blitzer": {
          "cost": 105,
          "minimum": 0,
          "maximum": 2,
          "color": "red",
          "movementAllowance": 7,
          "strength": 3,
          "agility": "3+",
          "passingAbility": "4+",
          "armorValue": "9+",
          "skills": [
            "Block",
            "Catch"
          ],
          "traits": []
        },
        "Bodyguard": {
          "cost": 90,
          "minimum": 0,
          "maximum": 4,
          "color": "green",
          "movementAllowance": 6,
          "strength": 3,
          "agility": "3+",
          "passingAbility": "5+",
          "armorValue": "9+",
          "skills": [
            "Stand Firm",
            "Wrestle"
          ],
          "traits": []
        },
        "Ogre": {
          "cost": 140,
          "minimum": 0,
          "maximum": 1,
          "color": "green",
          "movementAllowance": 5,
          "strength": 5,
          "agility": "4+",
          "passingAbility": "5+",
          "armorValue": "10+",
          "skills": [
            "Mighty Blow (+1)",
            "Thick Skull"
          ],
          "traits": [
            "Bone Head",
            "Loner (4+)",
            "Throw Team-mate"
          ]
        }
      }
    },
    "Lizardman": {
      "reroll": 70,
      "apothecary": true,
      "tier": 1,
      "positions": {
        "Skink Runner Lineman": {
          "cost": 60,
          "minimum": 0,
          "maximum": 12,
          "color": "grey",
          "movementAllowance": 8,
          "strength": 2,
          "agility": "3+",
          "passingAbility": "4+",
          "armorValue": "8+",
          "skills": [
            "Dodge"
          ],
          "traits": [
            "Stunty"
          ]
        },
        "Chameleon Skink": {
          "cost": 70,
          "minimum": 0,
          "maximum": 2,
          "color": "red",
          "movementAllowance": 7,
          "strength": 2,
          "agility": "3+",
          "passingAbility": "3+",
          "armorValue": "8+",
          "skills": [
            "Dodge",
            "On the Ball",
            "Shadowing"
          ],
          "traits": [
            "Stunty"
          ]
        },
        "Saurus Blocker": {
          "cost": 85,
          "minimum": 0,
          "maximum": 6,
          "color": "green",
          "movementAllowance": 6,
          "strength": 4,
          "agility": "5+",
          "passingAbility": "6+",
          "armorValue": "10+",
          "skills": [],
          "traits": []
        },
        "Kroxigor": {
          "cost": 140,
          "minimum": 0,
          "maximum": 1,
          "color": "green",
          "movementAllowance": 6,
          "strength": 5,
          "agility": "5+",
          "passingAbility": "-",
          "armorValue": "10+",
          "skills": [
            "Mighty Blow (+1)",
            "Prehensile Tail",
            "Thick Skull"
          ],
          "traits": [
            "Bone Head",
            "Loner (4+)"
          ]
        }
      }
    },
    "Necromantic Horror": {
      "reroll": 70,
      "apothecary": false,
      "tier": 2,
      "positions": {
        "Zombie Lineman": {
          "cost": 40,
          "minimum": 0,
          "maximum": 16,
          "color": "grey",
          "movementAllowance": 4,
          "strength": 3,
          "agility": "4+",
          "passingAbility": "-",
          "armorValue": "9+",
          "skills": [],
          "traits": [
            "Regeneration"
          ]
        },
        "Ghoul Runner": {
          "cost": 75,
          "minimum": 0,
          "maximum": 2,
          "color": "yellow",
          "movementAllowance": 7,
          "strength": 3,
          "agility": "3+",
          "passingAbility": "4+",
          "armorValue": "8+",
          "skills": [
            "Dodge"
          ],
          "traits": []
        },
        "Wraith": {
          "cost": 95,
          "minimum": 0,
          "maximum": 2,
          "color": "red",
          "movementAllowance": 6,
          "strength": 3,
          "agility": "3+",
          "passingAbility": "-",
          "armorValue": "9+",
          "skills": [
            "Block",
            "Foul Appearance",
            "Side Step"
          ],
          "traits": [
            "No Hands",
            "Regeneration"
          ]
        },
        "Werewolf": {
          "cost": 125,
          "minimum": 0,
          "maximum": 2,
          "color": "red",
          "movementAllowance": 8,
          "strength": 3,
          "agility": "3+",
          "passingAbility": "4+",
          "armorValue": "9+",
          "skills": [
            "Claws",
            "Frenzy"
          ],
          "traits": [
            "Regeneration"
          ]
        },
        "Flesh Golem": {
          "cost": 115,
          "minimum": 0,
          "maximum": 2,
          "color": "green",
          "movementAllowance": 4,
          "strength": 4,
          "agility": "4+",
          "passingAbility": "-",
          "armorValue": "10+",
          "skills": [
            "Stand Firm",
            "Thick Skull"
          ],
          "traits": [
            "Regeneration"
          ]
        }
      }
    },
    "Norse": {
      "reroll": 60,
      "apothecary": true,
      "tier": 1,
      "positions": {
        "Norse Lineman": {
          "cost": 50,
          "minimum": 0,
          "maximum": 12,
          "color": "grey",
          "movementAllowance": 6,
          "strength": 3,
          "agility": "3+",
          "passingAbility": "4+",
          "armorValue": "8+",
          "skills": [
            "Block"
          ],
          "traits": []
        },
        "Norse Thrower": {
          "cost": 70,
          "minimum": 0,
          "maximum": 2,
          "color": "white",
          "movementAllowance": 6,
          "strength": 3,
          "agility": "3+",
          "passingAbility": "2+",
          "armorValue": "8+",
          "skills": [
            "Block",
            "Pass"
          ],
          "traits": []
        },
        "Norse Catcher": {
          "cost": 90,
          "minimum": 0,
          "maximum": 4,
          "color": "yellow",
          "movementAllowance": 7,
          "strength": 3,
          "agility": "3+",
          "passingAbility": "5+",
          "armorValue": "8+",
          "skills": [
            "Block",
            "Dauntless"
          ],
          "traits": []
        },
        "Norse Berserker": {
          "cost": 90,
          "minimum": 0,
          "maximum": 2,
          "color": "red",
          "movementAllowance": 6,
          "strength": 3,
          "agility": "3+",
          "passingAbility": "5+",
          "armorValue": "8+",
          "skills": [
            "Block",
            "Frenzy",
            "Jump Up"
          ],
          "traits": []
        },
        "Ulfwerener": {
          "cost": 105,
          "minimum": 0,
          "maximum": 2,
          "color": "green",
          "movementAllowance": 6,
          "strength": 4,
          "agility": "4+",
          "passingAbility": "-",
          "armorValue": "9+",
          "skills": [
            "Frenzy"
          ],
          "traits": []
        },
        "Yhetee": {
          "cost": 140,
          "minimum": 0,
          "maximum": 1,
          "color": "green",
          "movementAllowance": 5,
          "strength": 5,
          "agility": "5+",
          "passingAbility": "-",
          "armorValue": "9+",
          "skills": [
            "Claws",
            "Disturbing Presence",
            "Frenzy"
          ],
          "traits": [
            "Loner (4+)",
            "Unchannelled Fury"
          ]
        }
      }
    },
    "Nurgle": {
      "reroll": 70,
      "apothecary": false,
      "tier": 2,
      "positions": {
        "Rotten Lineman": {
          "cost": 35,
          "minimum": 0,
          "maximum": 12,
          "color": "grey",
          "movementAllowance": 5,
          "strength": 3,
          "agility": "4+",
          "passingAbility": "6+",
          "armorValue": "9+",
          "skills": [],
          "traits": [
            "Decay",
            "Plague Ridden"
          ]
        },
        "Pestigor": {
          "cost": 75,
          "minimum": 0,
          "maximum": 4,
          "color": "red",
          "movementAllowance": 6,
          "strength": 3,
          "agility": "3+",
          "passingAbility": "4+",
          "armorValue": "9+",
          "skills": [
            "Horns"
          ],
          "traits": [
            "Regeneration",
            "Plague Ridden"
          ]
        },
        "Bloater": {
          "cost": 115,
          "minimum": 0,
          "maximum": 4,
          "color": "green",
          "movementAllowance": 4,
          "strength": 4,
          "agility": "4+",
          "passingAbility": "6+",
          "armorValue": "10+",
          "skills": [
            "Disturbing Presence",
            "Foul Appearance"
          ],
          "traits": [
            "Plague Ridden",
            "Regeneration"
          ]
        },
        "Rotspawn": {
          "cost": 140,
          "minimum": 0,
          "maximum": 1,
          "color": "green",
          "movementAllowance": 4,
          "strength": 5,
          "agility": "5+",
          "passingAbility": "-",
          "armorValue": "10+",
          "skills": [
            "Disturbing Presence",
            "Foul Appearance",
            "Mighty Blow (+1)",
            "Tentacles"
          ],
          "traits": [
            "Loner (4+)",
            "Plague Ridden",
            "Really Stupid",
            "Regeneration"
          ]
        }
      }
    },
    "Ogre": {
      "reroll": 60,
      "apothecary": true,
      "tier": 3,
      "positions": {
        "Gnoblar Lineman": {
          "cost": 15,
          "minimum": 0,
          "maximum": 16,
          "color": "grey",
          "movementAllowance": 5,
          "strength": 1,
          "agility": "3+",
          "passingAbility": "5+",
          "armorValue": "6+",
          "skills": [
            "Dodge"
          ],
          "traits": [
            "Right Stuff",
            "Stunty",
            "Titchy"
          ]
        },
        "Ogre Runt Punter": {
          "cost": 145,
          "minimum": 0,
          "maximum": 1,
          "color": "green",
          "movementAllowance": 5,
          "strength": 5,
          "agility": "4+",
          "passingAbility": "4+",
          "armorValue": "10+",
          "skills": [
            "Mighty Blow (+1)",
            "Thick Skull"
          ],
          "traits": [
            "Bone Head",
            "Loner (4+)",
            "Kick Team-mate"
          ]
        },
        "Ogre Blocker": {
          "cost": 140,
          "minimum": 0,
          "maximum": 5,
          "color": "green",
          "movementAllowance": 5,
          "strength": 5,
          "agility": "4+",
          "passingAbility": "5+",
          "armorValue": "10+",
          "skills": [
            "Mighty Blow (+1)",
            "Thick Skull"
          ],
          "traits": [
            "Bone Head",
            "Loner (4+)",
            "Throw Team-mate"
          ]
        }
      }
    },
    "Old World Alliance": {
      "reroll": 70,
      "apothecary": true,
      "tier": 1,
      "positionRestriction": {
        "max": 1,
        "of": [
          "Ogre",
          "Altern Forest Treeman"
        ]
      },
      "positions": {
        "Old World Human Lineman": {
          "cost": 50,
          "minimum": 0,
          "maximum": 12,
          "color": "grey",
          "movementAllowance": 6,
          "strength": 3,
          "agility": "3+",
          "passingAbility": "4+",
          "armorValue": "9+",
          "skills": [],
          "traits": []
        },
        "Old World Human Thrower": {
          "cost": 80,
          "minimum": 0,
          "maximum": 1,
          "color": "white",
          "movementAllowance": 6,
          "strength": 3,
          "agility": "3+",
          "passingAbility": "3+",
          "armorValue": "9+",
          "skills": [
            "Pass",
            "Sure Hands"
          ],
          "traits": [
            "Animosity (all Dwarf and Halfling team-mates)"
          ]
        },
        "Old World Human Catcher": {
          "cost": 65,
          "minimum": 0,
          "maximum": 1,
          "color": "yellow",
          "movementAllowance": 8,
          "strength": 2,
          "agility": "3+",
          "passingAbility": "5+",
          "armorValue": "8+",
          "skills": [
            "Catch",
            "Dodge"
          ],
          "traits": [
            "Animosity (all Dwarf and Halfling team-mates)"
          ]
        },
        "Old World Human Blitzer": {
          "cost": 90,
          "minimum": 0,
          "maximum": 1,
          "color": "red",
          "movementAllowance": 7,
          "strength": 3,
          "agility": "3+",
          "passingAbility": "4+",
          "armorValue": "9+",
          "skills": [
            "Block"
          ],
          "traits": [
            "Animosity (all Dwarf and Halfling team-mates)"
          ]
        },
        "Old World Dwarf Blocker": {
          "cost": 75,
          "minimum": 0,
          "maximum": 2,
          "color": "green",
          "movementAllowance": 4,
          "strength": 3,
          "agility": "4+",
          "passingAbility": "5+",
          "armorValue": "10+",
          "skills": [
            "Arm Bar",
            "Brawler",
            "Thick Skull"
          ],
          "traits": [
            "Loner (3+)"
          ]
        },
        "Old World Dwarf Runner": {
          "cost": 85,
          "minimum": 0,
          "maximum": 1,
          "color": "white",
          "movementAllowance": 6,
          "strength": 3,
          "agility": "3+",
          "passingAbility": "4+",
          "armorValue": "9+",
          "skills": [
            "Sure Hands",
            "Thick Skull"
          ],
          "traits": [
            "Loner (3+)"
          ]
        },
        "Old World Dwarf Blitzer": {
          "cost": 80,
          "minimum": 0,
          "maximum": 1,
          "color": "red",
          "movementAllowance": 5,
          "strength": 3,
          "agility": "3+",
          "passingAbility": "4+",
          "armorValue": "10+",
          "skills": [
            "Block",
            "Thick Skull"
          ],
          "traits": [
            "Loner (3+)"
          ]
        },
        "Old World Dwarf Troll Slayer": {
          "cost": 95,
          "minimum": 0,
          "maximum": 1,
          "color": "purple",
          "movementAllowance": 5,
          "strength": 3,
          "agility": "4+",
          "passingAbility": "-",
          "armorValue": "9+",
          "skills": [
            "Block",
            "Dauntless",
            "Frenzy",
            "Thick Skull"
          ],
          "traits": [
            "Loner (3+)"
          ]
        },
        "Old World Halfling Hopeful": {
          "cost": 30,
          "minimum": 0,
          "maximum": 2,
          "color": "yellow",
          "movementAllowance": 5,
          "strength": 2,
          "agility": "3+",
          "passingAbility": "4+",
          "armorValue": "7+",
          "skills": [
            "Dodge"
          ],
          "traits": [
            "Animosity (all Dwarf and Human team-mates)",
            "Right Stuff",
            "Stunty"
          ]
        },
        "Ogre": {
          "cost": 140,
          "minimum": 0,
          "maximum": 1,
          "color": "green",
          "movementAllowance": 5,
          "strength": 5,
          "agility": "4+",
          "passingAbility": "5+",
          "armorValue": "10+",
          "skills": [
            "Mighty Blow (+1)",
            "Thick Skull"
          ],
          "traits": [
            "Bone Head",
            "Loner (4+)",
            "Throw Team-mate"
          ]
        },
        "Altern Forest Treeman": {
          "cost": 120,
          "minimum": 0,
          "maximum": 1,
          "color": "green",
          "movementAllowance": 2,
          "strength": 6,
          "agility": "5+",
          "passingAbility": "5+",
          "armorValue": "11+",
          "skills": [
            "Mighty Blow (+1)",
            "Stand Firm",
            "Strong Arm",
            "Thick Skull"
          ],
          "traits": [
            "Loner (4+)",
            "Take Root",
            "Throw Team-mate",
            "Timmmm-ber!"
          ]
        }
      }
    },
    "Orc": {
      "reroll": 60,
      "apothecary": true,
      "tier": 1,
      "positions": {
        "Orc Lineman": {
          "cost": 50,
          "minimum": 0,
          "maximum": 16,
          "color": "grey",
          "movementAllowance": 5,
          "strength": 3,
          "agility": "3+",
          "passingAbility": "4+",
          "armorValue": "10+",
          "skills": [],
          "traits": [
            "Animosity (Orc Linemen)"
          ]
        },
        "Thrower": {
          "cost": 65,
          "minimum": 0,
          "maximum": 2,
          "color": "white",
          "movementAllowance": 5,
          "strength": 3,
          "agility": "3+",
          "passingAbility": "3+",
          "armorValue": "9+",
          "skills": [
            "Pass",
            "Sure Hands"
          ],
          "traits": [
            "Animosity (all team-mates)"
          ]
        },
        "Blitzer": {
          "cost": 80,
          "minimum": 0,
          "maximum": 4,
          "color": "red",
          "movementAllowance": 6,
          "strength": 3,
          "agility": "3+",
          "passingAbility": "4+",
          "armorValue": "10+",
          "skills": [
            "Block"
          ],
          "traits": [
            "Animosity (all team-mates)"
          ]
        },
        "Big Un Blocker": {
          "cost": 90,
          "minimum": 0,
          "maximum": 4,
          "color": "green",
          "movementAllowance": 5,
          "strength": 4,
          "agility": "4+",
          "passingAbility": "-",
          "armorValue": "10+",
          "skills": [],
          "traits": [
            "Animosity (Big Un Blockers)"
          ]
        },
        "Goblin": {
          "cost": 40,
          "minimum": 0,
          "maximum": 4,
          "color": "yellow",
          "movementAllowance": 6,
          "strength": 2,
          "agility": "3+",
          "passingAbility": "4+",
          "armorValue": "8+",
          "skills": [
            "Dodge"
          ],
          "traits": [
            "Right Stuff",
            "Stunty"
          ]
        },
        "Untrained Troll": {
          "cost": 115,
          "minimum": 0,
          "maximum": 1,
          "color": "green",
          "movementAllowance": 4,
          "strength": 5,
          "agility": "5+",
          "passingAbility": "5+",
          "armorValue": "10+",
          "skills": [
            "Mighty Blow (+1)"
          ],
          "traits": [
            "Always Hungry",
            "Loner (3+)",
            "Projectile Vomit",
            "Really Stupid",
            "Regeneration",
            "Throw Team-mate"
          ]
        }
      }
    },
    "Shambling Undead": {
      "reroll": 70,
      "apothecary": false,
      "tier": 1,
      "positions": {
        "Skeleton Lineman": {
          "cost": 40,
          "minimum": 0,
          "maximum": 12,
          "color": "grey",
          "movementAllowance": 5,
          "strength": 3,
          "agility": "4+",
          "passingAbility": "6+",
          "armorValue": "8+",
          "skills": [
            "Thick Skull"
          ],
          "traits": [
            "Regeneration"
          ]
        },
        "Zombie Lineman": {
          "cost": 40,
          "minimum": 0,
          "maximum": 12,
          "color": "grey",
          "movementAllowance": 4,
          "strength": 3,
          "agility": "4+",
          "passingAbility": "-",
          "armorValue": "9+",
          "skills": [],
          "traits": [
            "Regeneration"
          ]
        },
        "Ghoul Runner": {
          "cost": 75,
          "minimum": 0,
          "maximum": 4,
          "color": "yellow",
          "movementAllowance": 7,
          "strength": 3,
          "agility": "3+",
          "passingAbility": "4+",
          "armorValue": "8+",
          "skills": [
            "Dodge"
          ],
          "traits": []
        },
        "Wight Blitzer": {
          "cost": 90,
          "minimum": 0,
          "maximum": 2,
          "color": "red",
          "movementAllowance": 6,
          "strength": 3,
          "agility": "3+",
          "passingAbility": "5+",
          "armorValue": "9+",
          "skills": [
            "Block"
          ],
          "traits": [
            "Regeneration"
          ]
        },
        "Mummy": {
          "cost": 125,
          "minimum": 0,
          "maximum": 2,
          "color": "green",
          "movementAllowance": 3,
          "strength": 5,
          "agility": "5+",
          "passingAbility": "-",
          "armorValue": "10+",
          "skills": [
            "Mighty Blow (+1)"
          ],
          "traits": [
            "Regeneration"
          ]
        }
      }
    },
    "Skaven": {
      "reroll": 50,
      "apothecary": true,
      "tier": 1,
      "positions": {
        "Skaven Clanrat Lineman": {
          "cost": 50,
          "minimum": 0,
          "maximum": 16,
          "color": "grey",
          "movementAllowance": 7,
          "strength": 3,
          "agility": "3+",
          "passingAbility": "4+",
          "armorValue": "8+",
          "skills": [],
          "traits": []
        },
        "Thrower": {
          "cost": 85,
          "minimum": 0,
          "maximum": 2,
          "color": "white",
          "movementAllowance": 7,
          "strength": 3,
          "agility": "3+",
          "passingAbility": "2+",
          "armorValue": "8+",
          "skills": [
            "Pass",
            "Sure Hands"
          ],
          "traits": []
        },
        "Gutter Runner": {
          "cost": 85,
          "minimum": 0,
          "maximum": 4,
          "color": "yellow",
          "movementAllowance": 9,
          "strength": 2,
          "agility": "2+",
          "passingAbility": "4+",
          "armorValue": "8+",
          "skills": [
            "Dodge"
          ],
          "traits": []
        },
        "Blitzer": {
          "cost": 90,
          "minimum": 0,
          "maximum": 2,
          "color": "red",
          "movementAllowance": 7,
          "strength": 3,
          "agility": "3+",
          "passingAbility": "5+",
          "armorValue": "9+",
          "skills": [
            "Block"
          ],
          "traits": []
        },
        "Rat Ogre": {
          "cost": 150,
          "minimum": 0,
          "maximum": 1,
          "color": "green",
          "movementAllowance": 6,
          "strength": 5,
          "agility": "4+",
          "passingAbility": "-",
          "armorValue": "9+",
          "skills": [
            "Frenzy",
            "Mighty Blow (+1)",
            "Prehensile Tail"
          ],
          "traits": [
            "Animal Savagery",
            "Loner (4+)"
          ]
        }
      }
    },
    "Snotling": {
      "reroll": 60,
      "apothecary": true,
      "tier": 3,
      "positions": {
        "Snotling Lineman": {
          "cost": 15,
          "minimum": 0,
          "maximum": 16,
          "color": "grey",
          "movementAllowance": 5,
          "strength": 1,
          "agility": "3+",
          "passingAbility": "5+",
          "armorValue": "6+",
          "skills": [
            "Dodge"
          ],
          "traits": [
            "Right Stuff",
            "Stunty",
            "Swarming",
            "Titchy"
          ]
        },
        "Fungus Flinga": {
          "cost": 30,
          "minimum": 0,
          "maximum": 2,
          "color": "violet",
          "movementAllowance": 5,
          "strength": 1,
          "agility": "3+",
          "passingAbility": "4+",
          "armorValue": "6+",
          "skills": [
            "Dodge",
            "Side Step"
          ],
          "traits": [
            "Bombardier",
            "Right Stuff",
            "Secret Weapon",
            "Stunty"
          ]
        },
        "Fun-hoppa": {
          "cost": 20,
          "minimum": 0,
          "maximum": 2,
          "color": "violet",
          "movementAllowance": 6,
          "strength": 1,
          "agility": "3+",
          "passingAbility": "5+",
          "armorValue": "6+",
          "skills": [
            "Dodge",
            "Side Step"
          ],
          "traits": [
            "Pogo Stick",
            "Right Stuff",
            "Stunty"
          ]
        },
        "Stilty Runna": {
          "cost": 20,
          "minimum": 0,
          "maximum": 2,
          "color": "violet",
          "movementAllowance": 6,
          "strength": 1,
          "agility": "3+",
          "passingAbility": "5+",
          "armorValue": "6+",
          "skills": [
            "Dodge",
            "Side Step",
            "Sprint"
          ],
          "traits": [
            "Right Stuff",
            "Stunty"
          ]
        },
        "Pump Wagon": {
          "cost": 105,
          "minimum": 0,
          "maximum": 2,
          "color": "violet",
          "movementAllowance": 4,
          "strength": 5,
          "agility": "5+",
          "passingAbility": "-",
          "armorValue": "9+",
          "skills": [
            "Dirty Player (+1)",
            "Juggernaut",
            "Mighty Blow (+1)",
            "Stand Firm"
          ],
          "traits": [
            "Really Stupid",
            "Secret Weapon"
          ]
        },
        "Trained Troll": {
          "cost": 115,
          "minimum": 0,
          "maximum": 2,
          "color": "green",
          "movementAllowance": 4,
          "strength": 5,
          "agility": "5+",
          "passingAbility": "5+",
          "armorValue": "10+",
          "skills": [
            "Mighty Blow (+1)"
          ],
          "traits": [
            "Always Hungry",
            "Loner (3+)",
            "Projectile Vomit",
            "Really Stupid",
            "Regeneration",
            "Throw Team-mate"
          ]
        }
      }
    },
    "Tomb Kings": {
      "reroll": 70,
      "apothecary": false,
      "tier": 2,
      "positions": {
        "Skeleton Lineman": {
          "cost": 40,
          "minimum": 0,
          "maximum": 12,
          "color": "grey",
          "movementAllowance": 5,
          "strength": 3,
          "agility": "4+",
          "passingAbility": "6+",
          "armorValue": "8+",
          "skills": [
            "Thick Skull"
          ],
          "traits": [
            "Regeneration"
          ]
        },
        "Anointed Throwers": {
          "cost": 70,
          "minimum": 0,
          "maximum": 2,
          "color": "white",
          "movementAllowance": 6,
          "strength": 3,
          "agility": "4+",
          "passingAbility": "3+",
          "armorValue": "8+",
          "skills": [
            "Pass",
            "Sure Hands",
            "Thick Skull"
          ],
          "traits": [
            "Regeneration"
          ]
        },
        "Anointed Blitzer": {
          "cost": 90,
          "minimum": 0,
          "maximum": 2,
          "color": "red",
          "movementAllowance": 6,
          "strength": 3,
          "agility": "4+",
          "passingAbility": "6+",
          "armorValue": "9+",
          "skills": [
            "Block",
            "Thick Skull"
          ],
          "traits": [
            "Regeneration"
          ]
        },
        "Tomb Guardian": {
          "cost": 100,
          "minimum": 0,
          "maximum": 4,
          "color": "green",
          "movementAllowance": 4,
          "strength": 5,
          "agility": "5+",
          "passingAbility": "-",
          "armorValue": "10+",
          "skills": [],
          "traits": [
            "Decay",
            "Regeneration"
          ]
        }
      }
    },
    "Underworld Denizen": {
      "reroll": 70,
      "apothecary": true,
      "tier": 2,
      "positionRestriction": {
        "max": 1,
        "of": [
          "Underworld Troll",
          "Mutant Rat Ogre"
        ]
      },
      "positions": {
        "Underworld Goblin Lineman": {
          "cost": 40,
          "minimum": 0,
          "maximum": 12,
          "color": "grey",
          "movementAllowance": 6,
          "strength": 2,
          "agility": "3+",
          "passingAbility": "4+",
          "armorValue": "8+",
          "skills": [
            "Dodge"
          ],
          "traits": [
            "Right Stuff",
            "Stunty"
          ]
        },
        "Underworld Snotling": {
          "cost": 15,
          "minimum": 0,
          "maximum": 6,
          "color": "yellow",
          "movementAllowance": 5,
          "strength": 1,
          "agility": "3+",
          "passingAbility": "5+",
          "armorValue": "6+",
          "skills": [
            "Dodge",
            "Side Step"
          ],
          "traits": [
            "Right Stuff",
            "Stunty",
            "Swarming",
            "Titchy"
          ]
        },
        "Skaven Clanrat": {
          "cost": 50,
          "minimum": 0,
          "maximum": 3,
          "color": "grey",
          "movementAllowance": 7,
          "strength": 3,
          "agility": "3+",
          "passingAbility": "4+",
          "armorValue": "8+",
          "skills": [],
          "traits": [
            "Animosity (Underworld Goblin Linemen)"
          ]
        },
        "Skaven Thrower": {
          "cost": 85,
          "minimum": 0,
          "maximum": 1,
          "color": "white",
          "movementAllowance": 7,
          "strength": 3,
          "agility": "3+",
          "passingAbility": "2+",
          "armorValue": "8+",
          "skills": [
            "Pass",
            "Sure Hands"
          ],
          "traits": [
            "Animosity (Underworld Goblin Linemen)"
          ]
        },
        "Gutter Runner": {
          "cost": 85,
          "minimum": 0,
          "maximum": 1,
          "color": "yellow",
          "movementAllowance": 9,
          "strength": 2,
          "agility": "2+",
          "passingAbility": "4+",
          "armorValue": "8+",
          "skills": [
            "Dodge"
          ],
          "traits": [
            "Animosity (Underworld Goblin Linemen)"
          ]
        },
        "Skaven Blitzer": {
          "cost": 90,
          "minimum": 0,
          "maximum": 1,
          "color": "red",
          "movementAllowance": 7,
          "strength": 3,
          "agility": "3+",
          "passingAbility": "5+",
          "armorValue": "9+",
          "skills": [
            "Block"
          ],
          "traits": [
            "Animosity (Underworld Goblin Linemen)"
          ]
        },
        "Underworld Troll": {
          "cost": 115,
          "minimum": 0,
          "maximum": 1,
          "color": "green",
          "movementAllowance": 4,
          "strength": 5,
          "agility": "5+",
          "passingAbility": "5+",
          "armorValue": "10+",
          "skills": [
            "Mighty Blow (+1)"
          ],
          "traits": [
            "Always Hungry",
            "Loner (4+)",
            "Projectile Vomit",
            "Really Stupid",
            "Regeneration",
            "Throw Team-mate"
          ]
        },
        "Mutant Rat Ogre": {
          "cost": 150,
          "minimum": 0,
          "maximum": 1,
          "color": "green",
          "movementAllowance": 6,
          "strength": 5,
          "agility": "4+",
          "passingAbility": "-",
          "armorValue": "9+",
          "skills": [
            "Frenzy",
            "Mighty Blow (+1)",
            "Prehensile Tail"
          ],
          "traits": [
            "Animal Savagery",
            "Loner (4+)"
          ]
        }
      }
    },
    "Vampire": {
      "reroll": 70,
      "apothecary": false,
      "tier": 2,
      "positions": {
        "Thrall Lineman": {
          "cost": 40,
          "minimum": 0,
          "maximum": 12,
          "color": "grey",
          "movementAllowance": 6,
          "strength": 3,
          "agility": "3+",
          "passingAbility": "5+",
          "armorValue": "8+",
          "skills": [],
          "traits": []
        },
        "Vampire Blitzer": {
          "cost": 110,
          "minimum": 0,
          "maximum": 6,
          "color": "red",
          "movementAllowance": 6,
          "strength": 4,
          "agility": "2+",
          "passingAbility": "3+",
          "armorValue": "9+",
          "skills": [
            "Hypnotic Gaze"
          ],
          "traits": [
            "Animal Savagery",
            "Regeneration"
          ]
        }
      }
    },
    "Wood Elf": {
      "reroll": 50,
      "apothecary": true,
      "tier": 1,
      "positions": {
        "Wood Elf Lineman": {
          "cost": 70,
          "minimum": 0,
          "maximum": 12,
          "color": "grey",
          "movementAllowance": 7,
          "strength": 3,
          "agility": "2+",
          "passingAbility": "4+",
          "armorValue": "8+",
          "skills": [],
          "traits": []
        },
        "Thrower": {
          "cost": 95,
          "minimum": 0,
          "maximum": 2,
          "color": "white",
          "movementAllowance": 7,
          "strength": 3,
          "agility": "2+",
          "passingAbility": "2+",
          "armorValue": "8+",
          "skills": [
            "Pass"
          ],
          "traits": []
        },
        "Catcher": {
          "cost": 90,
          "minimum": 0,
          "maximum": 4,
          "color": "yellow",
          "movementAllowance": 8,
          "strength": 2,
          "agility": "2+",
          "passingAbility": "4+",
          "armorValue": "8+",
          "skills": [
            "Catch",
            "Dodge"
          ],
          "traits": []
        },
        "Wardancer": {
          "cost": 125,
          "minimum": 0,
          "maximum": 2,
          "color": "red",
          "movementAllowance": 8,
          "strength": 3,
          "agility": "2+",
          "passingAbility": "4+",
          "armorValue": "8+",
          "skills": [
            "Block",
            "Dodge",
            "Leap"
          ],
          "traits": []
        },
        "Loren Forest Treeman": {
          "cost": 120,
          "minimum": 0,
          "maximum": 1,
          "color": "green",
          "movementAllowance": 2,
          "strength": 6,
          "agility": "5+",
          "passingAbility": "5+",
          "armorValue": "11+",
          "skills": [
            "Mighty Blow (+1)",
            "Stand Firm",
            "Strong Arm",
            "Thick Skull"
          ],
          "traits": [
            "Loner (4+)",
            "Take Root",
            "Throw Team-mate"
          ]
        }
      }
    }
  }
}